{
    "$schema": "https://schemas.wp.org/trunk/theme.json",
    "version": 2,
    "settings": {
        "appearanceTools": true,
        "border": {},
        "color": {},
        "custom": {},
        "dimensions": {},
        "layout": {
            "contentSize": "840px",
            "wideSize": "1100px"
        },
        "position": {},
        "shadow": {},
        "spacing": {},
        "typography": {},
        "useRootPaddingAwareAlignments": false,
        "blocks": {},
        "lightbox": {},
        "background": {}
    },
    "styles": {},
    "customTemplates": {},
    "templateParts": {},
    "patterns": []
}